id,title
"2VZBU-bgA6M","Too Many ZOOZ - P/T/G - Single - HQ"
"-B6keS8ZoUg","Korn - Kiss"
"-k2LvikL2yI","I Am Legion [Noisia x Foreign Beggars] - Stresses Part I"
"-KMkKkoHuGE","EASTER - THE HEAT (Official)"
"-Og0_pRt1R4","Busdriver - Sphinx's Coonery"
"-pxRXP3w-sQ","Regina Spektor - "Laughing With" [Official Music Video]"
"-slaR5CZXVo","K.Flay - Rawks [Official Video]"
"0-w_ex0eF1s","Suuns - "Pie IX" (Official Video)"
"0cXsoRRYf5A","Born Unto Trouble - Red Dead Redemption Soundtrack"
"0glw-2hLUWo","IDLES - Mother"
"0kPRcIrQeSg","Savant - Alchemist ft. Gino Sydal (12.12.2012)"
"0Z9MR1N6TCA","k?d X Medasin - 1234 (Bass Boosted)"
"0_JnhuPg7Oo","Feed Me - Starcrash"
"146frMwFIQc","Simon Sinek on Mellennials in the Workplace"
"19S34FbRXu4","Revolvr & Genisis Feat. Splitbreed - Unstoppable (Original Mix) [Simplify Records]"
"1gQ3w7bsseg","Carbon Airways - Gutter Punk"
"1iHqgYWFZRM","Billy Talent - The Ex"
"1Upj_Ib30K4","Nicolas Jaar - Mi Mujer (original mix) HD Video"
"1W4j8af4e8s","Shahmen - 1981985 Pt. l (feat. Unorthadox)"
"2C0oiIOBCUU","Dj Butcher- Get Busy pt 2"

"2M1xKXd4GVI","Nu - MAN O TO (Original Mix)"
"2m2ZsPWYJ3s","Mesijus x Münpauzn - Rojuje tu"
"2qjomu9K0Xk","caravan palace - suzy"
"2s3iGpDqQpQ","Korn - Falling Away from Me (Official Video)"
"2uDdOGC6zYU","Regina Spektor -  Love, You're a Whore [Live In London]"
"2uDdOGC6zYU","Regina Spektor -  Love, You're a Whore [Live In London]"
"3c_RU2NcJ9c","Erik Satie - Gnossienne No.3"
"3I7CLy70WtI","Grateful Dead - Terrapin Station"
"3Ip1irYWXck","KONGOS - I'm Only Joking"
"3K-0B0TYXYM","Busdriver - 'Avantcore'"
"3lDqMx4rmFU","Tyler, The Creator - IFHY"
"3lQuPgG709M","Kenya"
"412sg21D1Bk","[DVSN003] Noisia - B.R.U.L."
"412sg21D1Bk","[DVSN003] Noisia - B.R.U.L."
"4E4S0XWPMgQ","Queens Of The Stone Age - I Sat by the Ocean (Fox Uninvited Guest)"
"4MTyqoigiso","LUMP - Curse of the Contemporary (Official Video)"
"4QAFA2Ju3Zs","Trumpdisco - Melt (Original Mix)"
"4rPwBcRqojs","Too Many ZOOZ - Tricerahops - Subway Gawdz - HQ"
"4RYCLfGE-_Q","Kookies - MF Doom"
"4_k3Y1YFmQQ","Fox Stevenson - Sandblast"
"50X6FMYTq9k","Zeds Dead - Blink (feat. Perry Farrell) [Official Full Stream]"
"5a93HTfNF_s","HWLS - 001"
"5MRh5JETKqs","Plastikman(Richie Hawtin) - Ask Yourself"
"5rGhb0pAK30","Irish Rovers - Star of the County Down"
"5r_CtgsCVrs","Sweet Dreams - Deep Remix (Bass Boosted)"
"5ubitr_Jsg0","Feed Me - Shell Pet"
"5y0hwyFUmCg","Riot Gear by Regina Spektor"
"6-2jNiVK86A","Blue Stahli - ULTRAnumb"
"6A9-kYwnN2s","Busdriver - Sun Shower"
"6DqLVfxM-NE","Rob Zombie & Ozzy Osbourne - Iron Head"
"6EK_bLel9rQ","SugarBeats - Jazz Twist"
"6kIL31oVy30","[ TRAP ] ? Buku - I Can"
"6ku1rV45hv4","Tim Minchin - What was '06 for (Audio Music)"
"6Oedrjg2AS0","Apashe - Supernova (ft. Dope D.O.D.)"
"6Q0bGVbhZE8","MC Messiah- Kas, jeigu ne mes"
"6XJkPtxqWM8","AC Slater - Bass Inside (Official Music Video)"
"74ljXs4mmJU","Pitbull - Full of Shit ft. Nayer & Bass III Euro"
"7ea0C5op5Fo","Billy Talent Devil On My Shoulder"
"7Hhrhx5cMXM","Jerk - Sucked In"
"7Hhrhx5cMXM","Jerk - Sucked In"
"7qQKnTthuac","Richard Cheese "Gin And Juice""
"7XegwODZJuo","You Can Call Me Al - Noah and the Whale"
"811UYmGFwaw","Bushbaby - Force"
"83uaH3b1wtI","[Electro] - Favright - Iceladen [Monstercat FREE Release]"
"8ahN0f0r9JQ","Get Scared Sarcasm Lyric Video Official"
"8Gv0H-vPoDc",""Weird Al" Yankovic - Word Crimes"
"8JK1-SD3FUE","VibeSquad - Chocolates ft. Dirty MF"
"8jL2DPylmhE","deadmau5 feat. Colleen D'Agostino - Seeya"
"8mGBaXPlri8","t.A.T.u. - All The Things She Said"
"8OHoO4wWG0g","Throwing Snow - Avarice [Houndstooth]"
"8PXfgDYLO54",""Prisoners" Regina Spektor"
"8W-LPBCWgHg","Regina Spektor - December"
"8Zf7lgMpTXA","Highly Suspect- Bloodfeather Lyrics"
"91RuIekfbps","Feed Me - Last Requests feat. Jenna G (Official Audio)"
"938oWfsIyIc","Korn- Its On!"
"95TQ-KS3Mq0","K.flay - So what"
"96Zc-jYYRxU","KoRn - Souvenir (Unedited)"
"99GRNZN8_eU","Busdriver - Kill Your Employer"
"9CNfPGaC7wo","Korn-Fuels The Comedy(Feat. Kill The Noise)(Bonus Track)[CD Quality]"
"9GS5CpYTcfM","Regina Spektor - Poor Little Rich Boy"
"9HbQFb9GR5E","Regina Spektor - Ne Me Quitte Pas ("Songs" album version, 2001)"
"9Km20XpgucY","Alter Ego - Mess Pulse (Official Video)"
"9leepVtcNQ4","Trikk - Midnight Sequence"
"9QxvU40YuLU","Pegboard Nerds - How U Feelin'"
"9v-GFK9EykI","Skream - Stagger"
"aBGtyshnONI","Feed Me - The Spell (Official Audio)"
"Ab_2i_aoiRY","Vilniaus Energija - Van Dance (McLoud cover)"
"AD5NrsXx8WU","Rick and Morty Soundtrack - Evil Morty's Theme [1 hour version]"
"aeF1ZvA2IEQ","Noisia - Could This Be (Official Video)"
"aGZOmJRSpBQ","Queens of the Stone Age - Tangled up in Plaid (Album Version)"
"AkuveBPhkII","alt-J - In Cold Blood (Official Audio)"
"aKuW0d7WuLU","Suni Clay - In a Hood Near You - Need for Speed Most Wanted Soundtrack - 1080p"
"am4a8EfQDQM","The Elder Joes V"
"aPf74EhnO3s","Moody Good - Witness The Fuxness"
"APFZpeapcuY | Crew Mix 2 (Instrumental/Background Music)","d1ofaquavibe"
"APoKBsdV9yo","My Dear Acquaintance[A Happy New Year] - Regina Spektor Dance"
"apq3HMoDYi8","Shahmen - World of Wils Pt. l"
"Apy6H9DaAHk","The Frederik - 56K"
"ARAkP8hsN8k","14. Mesijus - Pabaiga (lyrics)"
"as7luL34eSw","Nicholas Stevenson - Here I Land"
"aSzdi9q9iac","K.Flay - Bad Vibes (Lyric Video)"
"atLSUQcmZuc","Cocorosie - After the Afterlife"
"AtwPlEJ2VJ8 | Regina Spektor","End of Thought"
"aU2h_BVvpXs","[Electro] - Favright - Nerve [Monstercat Release]"
"a_tpPrXEWgA","Birdy Nam Nam - Rainstorming - LineSession"
"b3CmcJv0Bhc","Noisia - Get Deaded (Moody Good Remix)"
"bCyS2oGrnR0","Regina Spektor - "Uh-Merica" [Audio]"
"beP6TpRJP60","Modeselektor - The Dark Side Of The Sun ( Feat. Puppetmastaz )"
"bf_HQUyDM3Y","UKF in the Mix: Beats - in association with Serato"
"BgVfjXA_QY0","Queens Of The Stone Age - 3's & 7's"
"bm6NuJvRqJM","System Of A Down - Darts #12"
"Bs7gne5fcoo","We are Number One, but it's an electro swing remix"
"bScphfETP-4 | Dope D.O.D. - D.O.D. Army","Music Video"
"bw5pi9nUGJ8","Elliphant - Only Getting Younger ft. Skrillex"
"BWXWivwhi14","Regina Spektor - "Don't Leave Me (Ne Me Quitte Pas)" Official Music Video"
"C-CG5w4YwOI",""Weird Al" Yankovic - Party In The CIA (Parody of "Party In The U.S.A." by Miley Cyrus)"
"C3aZ73_lJ9I","Modeselektor feat. Anti-Pop - Monkeytown - Humanized"
"c9qaJhj5ZdM","K.Flay and The Riot Squad - Suburban Rap Queen"
"CC8Z9hLxUuk","Wolfgang Gartner - The Grey Agenda (Original Mix) - Audiosurf"
"ccZuKOTb6ug","Regina Spektor-Blue Lips"
"CFEBriOa1x0","MISSIO - Bottom of the Deep Blue Sea (Official Video)"
"CFu50SyEGE8","Snoop Dogg - Gin And Juice (AOL Sessions)"
"cGMWL8cOeAU","Transistor Original Soundtrack - In Circles"
"CLO8uLGDMfA","Regina Spektor-Your Honor"
"Cnk1pKcmHZ8","Feed Me - Shell Pet"
"Co8Qo4hTyb4","Wardruna - Tyr"
"cpSgihIxpUY","Regina Spektor-Edit (Lyrics)"
"cqESyZWz0T8","Real estate (Vaporwave mix)"
"cQSstU09YlM","Boy Kid Cloud - 89"
"cR9ofItBvLg","Horsepower Productions - Fist of Fury"
"Csfl0GKRhio","Blue Oyster Cult: Vengeance (The Pact)"
"CSvFpBOe8eY","System Of A Down - Chop Suey!"
"cVaTc15plVs","Hjernevask - Brainwashing (Eng Sub) Part 1 - The Gender Equality Paradox"
"CW5oGRx9CLM","The Weeknd - False Alarm"
"cXEZu-uIdeI","Nightcore - Sarcasm"
"cZaGYphtr7E","Rains Of Castamere [Vocals & Instrumental]"
"d58VJ-sC1uY","Florence + The Machine - Breath Of Life"
"D8jZs_kjDWM","Philomena Cunk  'Did Shakespeare make up the word bumbaclart ' ? video   Television   radio   The Gu"
"DcHKOC64KnE","Queens Of The Stone Age - Go With The Flow"
"Dig5dblefjQ","Truth - How Strange (feat. Bijou)"
"dmEJry4Xcag","Ghetto Oblivion Dialogue"
"dnDRl6EVEV8","Feed Me - Jodie (Official Audio)"
"dOO4VZeH4-g","Nonpoint-Bullet With A Name"
"DqdyyxdZ4cQ | Aviators - No One Will Save You (Bloodborne Song","Gothic Rock)"
"dQGjJA5vhos","Shahmen - Dogtown LoveSong"
"duT5DstS4KM","Bouncing Seals Meme Vine"
"dw3VoxL36Vo","Transistor OST - We All Become (feat Ashley Barrett)"
"DxU0VPxhM0E","ESKMO "Become Matter Soon" (Ninja Tune)"
"dXWxtCNBwx4","Wolfmother - Pyramid"
"dYBcH4Mevi0","Noah and the Whale - Girlfriend in a Coma"
"dzvC2JP8V2E","Richard Cheese: Insane in the Membrane"
"d_EADBnXjXc","Amy Winehouse - Valery"
"E3B4jD_eCiQ","Noisia   Diplodocus (Kill the Noise Remix)"
"E44X58ZvpLE","Karpiz, Lilas, Messiah, Svaras - Kambariokai (Live From Kaunas Streets 2013)"
"e9bHTfT0qa0","Mindless Self Indulgence - Revenge (digital vinyl)"
"eAjiFcAnkp8","Feed Me - Death By Robot"
"ECSlT8-rc9U","Carbon Airways - Black Sun"
"edOrKeBS-s8","?Electro?OVERWERK - Canon"
"EE3KxZjGclc","Regina Spektor - Lulliby (Traducción al Español + Lyrics)"
"EfE-tV8Cq00","Bring Me The Horizon - Follow You (Lyrics)"
"egJtGs5BoEc","Wolfgang Gartner - Killer (original mix)"
"egJtGs5BoEc","Wolfgang Gartner - Killer (original mix)"
"emQK4gnm5Rk","Eskmo - The Sun Is A Drum"
"eN7dYDYfvVg","I CAN SWING MY SWORD! - Minecraft Song"
"En9B9GLk6D0","Till Death - Forever"
"ere2Mstl8ww","Royal Blood - Little Monster (Official Video)"
"ES26ERUL_94","Memories. Vaidotas Grincevi?ius ? ??tone, Pra?au (cover) dar ne SnailyMood"
"ETbGpGJNVLM","Purity Ring - Obedear"
"Ev_uo78pnsI","Limonadas"
"f77b5uNdGWs","Nico Vega - Million Years"
"f7tc5gSuDBs","UKF Bass Culture 3 (Bass & Beats / Dubstep Megamix)"
"FfEWEsUbPUI","Crookram - Sun"
"ffUk1T9rqPI","Zombie Cats - Grey Town [Eatbrain]"
"fh5yJG7No3w","Flux Pavilion - The Scientist"
"Fi8rsCncwF8","OutKast -- Hey Ya lyrics"
"FIgnCqYUIjk","22. Pat Andres - Dobro Slider Blues"
"FjKiKVK1U6s","Slow Magic - Corvette Cassette - Audiotree Live"
"FklUAoZ6KxY",""Weird Al" Yankovic - Smells Like Nirvana"
"FSXlb9y4KWk","Wax Motif - Forsaken"
"FtKyd9uFvqo","Feed Me - In The Bin (Official Audio)"
"FuEbhELiUA8","Killatrix - Falling Off (Mat Tha Hat Remix)"
"FzbPm7nN1Ww","Eptic - Gun Finga"
"G0gEdL6mr4U","Owls"
"G5-5cpdAvB8","Philomena Cunk - Feminists and Feminism ('n' mirrors :o) - DM"
"G5U1QciDPoY","Solo Ansamblis - Juoda Juoda Juoda Juoda Naktis (radijo versija)"
"Gaid72fqzNE","Tim Minchin - If I Didn't Have You"
"GaQxn1Ke8AY","Example - Last Ones Standing (Doctor P Remix)"
"GavMNS_YkUs","Truth - Madman (feat. Flowdan)"
"GCdwKhTtNNw","The Neighbourhood - Sweater Weather (Video)"
"GCNnnZ84UB8","Yellowcard - Breathing lyrics"
"gCtQkTobTBE","Nightcore - Sarcasm (Lyrics)"
"GgFE5OQbt_g","Yolanda Be Cool vs DCUP -- We No Speak Americano"
"ggqI-HH8yXc","[Drumstep] - Pegboard Nerds - Try This [Monstercat Release]"
"ggXSrN-l9Yw","Truth - Nervous (feat. Bijou)"
"GIpM4NkWYbQ","Tom Rosenthal - Oh No Pedro (Official Music Video)"
"giqq_XHc7ck","Regina Spektor - The Wallet"
"gNB1-a5-jF0","1. Mesijus - Mesijus gr??o (lyrics)"
"gnVEG_waiqg","Foo Fighters - All My Life"
"GOnJHWWD-nI","SMPL SMPL - Mira?as"
"grrrBeY31wk","Nicolas Jaar - Let's Live For Today"
"gsTb0NBkBp8","TOP 10 TREES IN LEAGUE OF LEGENDS - YOU WON'T BELIEVE #4"
"G_sBOsh-vyI","Muse - Knights Of Cydonia  (Video)"
"H-_PqDaHLqY","Discovery Channel - Boom De Yada"
"h1cCI8BmyIw","GTA 5 Soundtrack - Tyler the Creator Garbage (GTA V)"
"h3WGPXYlz64","Regina Spektor - Ballad Of A Politician (Studio Version - What We Saw From The Cheap Seats)"
"H75ivqdjgCg","Electric Light Orchestra - Jungle (Audio)"
"H91kWpUNiwU","Xzibit - X"
"ha_WQ6mI6iA","ZHU - Superfriends (Just A Gent Remix)"
"hDx1n0ioDqs","Che DuBois - The Way I See"
"hDx1n0ioDqs","Che DuBois - The Way I See"
"hDx1n0ioDqs","Che DuBois - The Way I See"
"hg14Ocs03xA","Queens Of The Stone Age ? Make It Wit Chu (Virgin Magnetic Material Remix)"
"HjSBjDBk49c | Regina Spektor","Grand Hotel"
"HKtsdZs9LJo","Cage The Elephant - Ain't No Rest For The Wicked"
"HqPduUWoWMI","IAMX - Fire and Whispers"
"HRY55HRev-k","Regina Spektor - The Ghost of Corporate Future / Hamburg"
"HS63i2veU90","Shahmen - Dirt"
"hsNLsSBEAt8","Scampi"
"HTaFmzWzwbk","Wolfgang Gartner - Montezuma (Original Mix)"
"HUHC9tYz8ik","Billie Eilish - bury a friend"
"hwK_WOXjfc0","Sixteen Going On Seventeen from The Sound of Music"
"I-HKjc0p_-8","Wolfgang Gartner - Cognitive Dissonance"
"IddDWBpkzYg","Eskmo - Cloudlight (Official Video) HD"
"IFBi5z6ysnk","Hdnstik Vibes - Too White"
"IFBi5z6ysnk","Hdnstik Vibes - Too White"
"IIPMzeNWAtk","Purity Ring - begin again"
"IKJRVH2t2w0","September - Until I Die (Feed Me Remix)"
"iMqR42m3kFA","Apashe x Tha Trickaz - Trap Requiem"
"IMyqasy2Lco","Too Many Zooz - "Bedford""
"iMznpUsdH54","Seven Nation Army"
"IOvRvRyyah8","MEUTE - Gula (Deadmau5 Rework)"
"iUAjdoYQSIY","Tom Rosenthal - For You To Be Here (Official Music Video)"
"iy7mmbdau-g","La Secte Phonétik - Bienvenue dans la Secte [officiel]"
"JE-Y4eN95d0","Noisia - Devil May Cry Soundtrack - 36 - Home Truths Reprise (Bonus)"
"jekTxx76drA","System Of A Down - Peephole #10"
"jhgJV0Pg54Y","El Profesor - Bella Ciao (HUGEL Remix) [Lyric Video]"
"jI4sptAmO2Y","KONGOS - Take Me Back"
"JItQ4Kg5Zy8","Busdriver - Casting Agents and Cowgirls"
"JJvdp0XpSj0","[Glitch Hop / 110BPM] - Pegboard Nerds ft. Splitbreed - We Are One [Monstercat EP Release]"
"jJxkhYGpTKQ","Feel Good Inc. but the vocals are 5 bpm slower than the instrumentals"
"JL1TOLYMtyg","Habstrakt & Jace Mek - I Wanna"
"JmbaOgN4Ssw","Shpongle & Gunslinger - Dreamcatcher"
"JnaUnQDoQWs","Classic VGM 138: Earthbound - Sanctuary Guardian"
"JoYMwyQC9H8","HOL BAUMANN - Radio Bombay"
"jTs1Bkf6Sr8","Apashe - Touch Down (ft. Panther)"
"JXcV6dOMUZs","Muse: Exogenesis Symphony Part III - HD -  Redemption  (video oficial)"
"jyzpE48ZtXY","Gun Metal Grey"
"K0DjWgLJLKw","[DVSN001] Noisia - Raar"
"K0z_85RB3Nw","10. Dolph Taylor and Bart Hendrickson - Quaker Bait"
"K3pHa9nm3ho","Shahmen - Flacky"
"K80fpz-xBjM","Feed Me - Onstuh (Official Audio)"
"kEbBuijsCT4","K.Flay - Stop, Focus"
"KEQ5s7b31Lg","Truth - Evil Eye (Ft. Joker, Taso & Lelijveld)"
"klxufFWFuB8","Wolfgang Gartner - Welcome back"HD|                                                                 |
"KqGD2y9V4Zc","K.Flay - Nothing At All (HQ Audio)"
"KsrjXcknGTI","Stephen - Crossfire ( Bass Boosted )"
"ktkpaLIyx20","Miestas Ant Kalno"
"KxBqjQTXpKc","Pegboard Nerds - We Are One (Original Mix) [No Vocals]"
"KxvxymcVY9k","Regina Spektor - Open (Studio Version - What We Saw From The Cheap Seats)"
"L5QONwu_grc","zach mccoy/ tokyo lucid is good"
"La4Dcd1aUcE","Nena ?- 99 Luftballons"
"lClBMhzqwCs","Zeds Dead - Collapse (feat. Memorecks)"
"lEE6AO4SZ78","Regina Spektor - The Trapper and the Furrier [Official Music Video]"
"lJ1NYJQnJTI","K.Flay - FML (Vanic Remix)"
"lK_JzbTjFA0","Mc Messiah - Antimaterija"
"llru9SsunaI","Karma Fields - Skyline (Acoustic Mix) [Monstercat FREE Release]"
"lOfZLb33uCg",""Weird" Al Yankovic - Amish Paradise (Parody of "Gangsta's Paradise")"
"lPVBrRd9wCo","N'to - Trauma (Worakls Remix)"
"Lr5ltqQf1QA","System Of A Down - Know #02"
"LRUIiwaS0_4","Regina Spektor - Pound of Flesh"
"lvL_Mp9rgwk","K.Flay - Hollywood Forever"
"lwT7-CJNCgM","Regina Spektor - Bobbin' for Apples (Lollapalooza 2007)"
"lX44CAz-JhU","SIAMES - "The Wolf" [Official Video]"
"LxijhTgxkyk","Queens of the Stone Age - Feet Don't Fail Me (Audio)"
"LYpg4YWCjaI","Crucial Features  - Mir?ta Sovietynas"
"m9YXEEdZAtw","Moondog ? Bird's Lament [Extended]"
"mDise_Em_Ug","Princess Chelsea - I Love My Boyfriend"
"mGen-qHstOg","Fox Stevenson & Mesto - Chatterbox"
"Mhoxnv3ouEw","Cave Story ? Journey Through the Caves (Chjolo Remix) - GameChops"
"Mj56paK61dk","System Of A Down - Ego Brain"
"mjTR9S3APkE","Korn - Counting On Me"
"MmUYgJugOcc","Feed Me - Existential Crisis"
"MODYERcD-MM","Frank Fitts - Trip"
"MRDTQGXaO-k","Beyond The Beyond- RJD2"
"mRhqzxlgkNY","Akala - One More Breath - ( lyric video )"
"MV_3Dpw-BRY","Kavinsky - Nightcall (Drive Original Movie Soundtrack) (Official Audio)"
"mwcA2xuKtts","Cockroach King"
"MZukiRrYROA","The Correspondents - What's Happened To Soho?"
"n3wcES3YEs4","Cat Dealers - Your Body"
"n5TiPHOXm_4","[Glitch Hop/Moombah] Teminite - Vortex"
"N5wng59sNn8","Kryptic Minds - Hybrid (Biome Remix)"
"N9qYF9DZPdw",""Weird Al" Yankovic - White & Nerdy (Official Video)"
"nCoxuVCHE8E","Frank Fitts - Hate"
"ncwsemhRpLU","Feed Me feat. Kill The Noise & Anjulie - Crazy Maybe"
"NC_his0-SKw","Florence & The Machine - Girl with one eye + Lyrics"
"nE9TXEA5DEo","Tom Rosenthal - YOLO (Official Music Video)"
"NIs6qv4mU1Q","Regina Spektor - Summer in the City (ACL 2007)"
"NjooVWA7h24","Eptic - She"
"Nlk9mWwc880","Cem Gulalp - Electro Rave 2016 Year Mix"
"nlu2z2gkhhI","Bioshock Soundtrack: 08 Cohens Masterpiece"
"NntNB0p6DSA","KillSonik - Never Dream Of Dying"
"NSC7AyOk1HY","Regina Spektor - Love Affair"
"nt26yjdItdA","K.Flay - Giver (Lyric Video)"
"nVZ8tRlcZhA","System Of A Down - Atwa"
"NxviGrBMKKY","Mushroomhead - We Are the Truth (Official Video)"
"o0qSfZtCiv8","Nicolas Jaar - Essential Mix on BBC (05.19.2012) Part 2/2"
"o0u4M6vppCI",""Shia LaBeouf" Live - Rob Cantor"
"O0YxeTjFn70","Puscifer - The Humbling River with Lyrics"
"O2IuJPh6h_A","Muse - Time Is Running Out (video)"
"OaOGO5jHE9s","Moody Good - Hotplate (ALESIA Remix)"
"OC0-wUqcZO0","Xzibit - Multiply ft. Nate Dogg"
"OcmBowQsVrg","INEXPLICABLE by The Correspondents"
"od6Ml8iQvOE","Eminem- Rain Man"
"odUw-LA2ApM","SWEET DREAMS - Bossa`n Jazz"
"OeF7E5wTJrI","9. Mesijus - Konkurencija (lyrics)"
"OeI3Wg0H4SI","Tim Minchin sings "This Is My World""
"oeN5utbJnlg","?Best GLITCH HOP Gaming Mix 2016 #6? ?( ???)?"
"oGMc0va7jG4","Chase & Status - International (Skrillex Remix)"
"OKRJfIPiJGY","Bauhaus - Bela Lugosi's Dead (Original)"
"oLAnfZR3BO8","Tom Rosenthal - Take Your Guess (Official Music Video)"
"oMX1sc3eOTE","New York - Alicia Keys  "Empire State of Mind" [OFFICIAL VIDEO]"
"oN0hQud4vCI","K.Flay - Carry On"
"oN2Xs-MvxLw","Zack Hemsey - "The Way (Instrumental)""
"onoEXgCzJq4","Dope D.O.D. - One Man"
"OnuuYcqhzCE","Bleed It Out (Official Video) - Linkin Park"
"OoMePNDh-BE","System Of A Down - A.D.D. #06"
"OQ2fREo3Tjc","Feminist Pretends To Be Male.. And Learns Important lesson."
"Oqi2-dWCjz0","Shahmen - Abacus"
"ORQX4QQwmII","Nothing But Thieves - Itch"
"OwWT43Eb3IM","Swing and Electro Swing Collection"
"OXIc8ofYNis","Skream - Tapped"
"oYjHLEX5D1M","No Violet - She Goes Her Own Way (Acoustic)"
"OYXUVSC--Fs","The Dø 'Slippery Slope' - Official video"
"p07GxPjLllY","Amon Tobin - Chocolate Lovely"
"p0NFGgl7Cqs","Honor for all - Jon Licht and Daniel Licht"
"p7mfEeQaAM0","CRYSTAL METHOD - Born too slow"
"paGOde3BO1Q","Desembra - Hit 'Em [NCS Release]"
"PALkYsML0q0","[PREMIERE] - SUBJ_4 - Revoke"
"PcMgfN-HAoo","Dr Kucho! & Gregor Salto - Can't Stop Playing  (Amsterdam Funk Mix) HQwav"
"pcUYiwfMeb4","Eptic - Brainstorm"
"PFqvkZHqj-c","Jessica - Regina Spektor (Lyric video) (???)"
"PhGtxxxorPk","[Nu Disco] - 7 Minutes Dead - Peacock [Monstercat EP Release]"
"PhLnPifHqQU","Regina Spektor "Ode to Divorce" Music Video"
"PJZRvE4xHPM","Karma Fields - Greatness (feat. Talib Kweli) [Monstercat Official Music Video]"
"PLFVGwGQcB0","Erik Satie - Gnossienne No.1"
"PO0J4nmj9Ug | No Violet - America","BMS TV"
"pP0Fk1ZK4l0","Eptic - Oh Snap (FULL)"
"PPgrfXuHYWI","Cky - 96 quite bitter beings"
"PPgrfXuHYWI","Cky - 96 quite bitter beings"
"pPUVBtA_ryY","regina spektor - Another Town (Demo)"
"pQAqZMBLeF8","8. Mesijus - Negirk kanap?s (lyrics)"
"PRqRTtyKPMg","AC Slater - U Got 2 (Official Music Video)"
"PWgvGjAhvIw","OutKast - Hey Ya! (Video)"
"PZlKOzjy9RQ","Bayside - They're not horses they're unicorns lyrics"
"q3wNtEM5OHA","Feed Me - Own Ghost"
"Q96LDWshe38","Flatout - LAB Beat the boys *best song*"
"QbQA_7izGQo","Feed Me x Kill the Noise ft. Anjulie - Crazy Maybe [No Mana Remix]"
"qc57-IcwnB0","TOO MANY ZOOZ - "SPOCKTOPUS""
"qcGLppGzu0g","Rusko - Somebody To Love (Official Music Video)"
"qfxlWpmBsng","Haywyre Breathe"
"QHuSvFRUBAQ","Tim Minchin - Some people have it worse than I"
"QkF_G-RF66M","IDLES - DANNY NEDELKO"
"qM73clx3aMI","La Valse D'Amelie ( Yann Tiersen ) - 200 Guitars LIVE at Megaron Athens ( 7-3-15 )"
"QN6v-d4iqqU","Tim Minchin - Greed (Balsa Wood & Glue)"
"qoAxRICB9j8","Gorillaz - Garage Palace (Visualiser)"
"QS-YoSwSiYc | Fox Stevenson - Simple Life",""All This Time " EP"
"qWlMdYf1PSM","Amazing Horse"
"Qwr_b_l4Myk","Regina Spektor - Baobabs (Subtitulada)"
"qZVSzOzHlGE","Happyendless - Atb?go Kari?nai, Su?aud? Brazausk? (SSG cover)"
"RCCVE87CD6o","Regina Spektor - Genius Next Door"
"rddfiQaGNJk","3. Busdriver - Handfuls of Sky"
"Rfjhxvd8jao","Bassnectar - Udu Shuffle"
"Rfo9fKTLE1E","Pegboard Nerds - Speed Of Light (Pt. 2) (feat. Taylor Bennett & Skylr)"
"rG8yKWkZ_xk","K.Flay - Not In California (Audio)"
"RgqhsO_9WyY","Solo Ansamblis - Skruzd? (Roboxai, 2016)"
"RGwvXCYgiuU","Agustin Barrios - La Cathédrale. Gabriel Bianco, guitare"
"RlfmLorTCNA","FeedMe - Blood Red (Piano Cover)"
"rn_YodiJO6k","Red Hot Chili Peppers - Otherside [Official Music Video]"
"RR65HDOh_JA","Eminem Puke"
"RTlNfHZkPsw","Regina Spektor - Oh Marcello (Studio Version - What We Saw From The Cheap Seats)"
"RVHV2nL5JZ0","Regina Spektor - Human of the Year [ALBUM]"
"RxQb4IHO6sM","Buku - Control"
"RZT05QixzRc","Anna - Odd Concept (Original Mix) [Diynamic Music]"
"S0KwgkV-4XE","Truth - Them (feat. TaLabun)"
"S4yO1zL1u1s","Emperor - Show Them"
"s88r_q7oufE","Queens Of The Stone Age - No One Knows"
"SAO-lzl3vVQ","Noisia - Machine Gun (Official Video)"
"sbx95gBb5HM","Royal Blood - How Did We Get So Dark? (Official Video)"
"sdVpRvf-Vpc","MEUTE - Araya (Fatima Yamaha Rework)"
"sjEZ27T2vnI","Shidlas - Buda"
"Sk-U8ruIQyA","grandson - Blood // Water"
"SlURs19PECs","Parov Stelar - Hotel Axos (Official Audio)"
"SUfU3c2a7hU","Cypress Hill & Rusko Feat. Damian Marley - Can't Keep Me Down (LYRICS) (2012)"
"SXiGexqRyjc","Pegboard Nerds - So What"
"sXKDL6WD9CQ","Regina Spektor - No Surprises (Radiohead Cover)"
"SZnqM9oZsCQ","Bare Noize & AFK - Elemental (ft. Anna Yvette) (Tru Fonix Remix)"
"sZsB6DaMJp0","K.Flay - On the Bridge"
"s_Gyh1r-ut0","Mindless Self Indulgence - Mark David Chapman Official Music Video"
"T2RiG5nhuPs","K.Flay - Black Wave (Lyric Video)"
"t4bSw4q16Tk","DJ Dean - Play it hard"
"t4bSw4q16Tk","DJ Dean - Play it hard"
"T4HUIPD1LcE","K.Flay - Dreamers"
"t6Lr8ggJWi4","Regina Spektor - The Prayer of François Villon (Molitva) - What We Saw from the Cheap Seats [HD]"
"T9x2IwfxHJQ","Nikita Quasim - Freshmen Year"
"tBa4Pq_7cgA","Moody Good - Kings Cross (feat. Yadi)"
"tbNlMtqrYS0","The Proclaimers - I'm Gonna Be (500 Miles)"
"tbNlMtqrYS0","The Proclaimers - I'm Gonna Be (500 Miles)"
"tBYqOiYZreQ","Why Has This Shen Player Reached Top 5 Challenger Without A Duo Partner? Season 10"
"TChjUJ3ev2w","Noisia - Alpha Centauri (Receptor Remix) (Free Download)"
"TCIojbRhBns","Witch House Mix (1 Hour)"
"tcRG2ICI3PY","Oum Shatt - Power to the Women of the Morning Shift"
"Te_p9Kld0Fo","Feed Me  - Beans Baxter"
"tgIqecROs5M","AWOLNATION - Sail (Official Music Video)"
"tHAhnJbGy9M","Regina Spektor - "On The Radio" [Official Music Video]"
"TJvCLLt6DA0","Oblivion NPC Dialogue: Redguard priest sharing wisdom."
"Tk7OktjZsJ0","BOMBAY DUB ORCHESTRA - Monsoon malabar"
"TKfKWzCBTm4","[Glitch Hop or 110BPM] - Haywyre - The Schism [Monstercat LP Release]"
"tLR-Z9jLD7E","The All Seeing I - 1st Man In Space"
"tocr7FOoBIU","EL VY - Sad Case / Happiness, Missouri (Lyric Video)"
"tpc6QR1li_g","Lukas ir Virgilijus Noreika "Laikas""
"tqKKSTR6EEg","LAB - Beat the Boys"
"TQs7_22CICI","Regina Spektor - Hotel Song (Typography)"
"TsdkGKXutrs","Bassnectar - In The Beginning [2016 Version] ? [Unlimited]"
"tVhYZGxjICA","I want to sing - Regina Spektor"
"tYAV4ItSWTs","The Vanishing of Ethan Carter ? Accolades Trailer"
"tyOA31vj1ws","Eskalatorius ? Dang?"
"TZEiOlrl_zM","neosignal - Sequenz"
"U76Nde6rMTw","Gang Starr - Full Clip"
"u8C-ZTQJIkU","Massive Attack - Paradise Circus (Zeds Dead Remix)"
"U8dBJSVGBlY","Regina Spektor- Firewood w/ Lyrics"
"U8_WoyrR7Is","Eprom & Barclay Crenshaw - Crawled Eagle"
"uAsZw_ZmenI","Solo Ansamblis - ?stri?i ?iburiai (Roboxai, 2016)"
"uCEgRYonxcg","IAMX - Fire and whispers"
"uCEgRYonxcg","IAMX - Fire and whispers"
"UclCCFNG9q4","Gorillaz - Clint Eastwood"
"uhk_S0HyQp4","Regina Spektor: Songs - Daniel Cowman"
"ujPAlm_DHo0","Danheim - Hefna"
"Ulq7Apn89zQ","Feed Me - Short Skirt (Official Audio)"
"umkhDCjfcGM","Excision & Space Laces - Destroid 10 - Funk Hole (Original Mix)"
"UPqWCWLVEXk","How To Irritate People - Need a lift"
"UPzE3Ybx4z0","Truth - The Fact"
"uq-gYOrU8bA","Paul Simon - You Can Call Me Al"
"urglg3WimHA",""Weird Al" Yankovic - Foil"
"UroytzJSVx4","[No Copyright Music] Bush Week - Nihilore"
"urV8MIcLDFk","Dishonored [Soundtrack] - Drunken Whaler"
"UVi8vOmgAzY","Regina Spektor - Back of a Truck (lyrics)"
"UvYHrGdIf9w","What You Are - Audioslave (Subtítulos en Español)"
"uWlJcJT8xOc","Glass Candy - Digital Versicolor"
"uzCQ6Q2MWNc","DJ MAGIC - Get Down"
"u_ElXYzFX_w","Tim Minchin - Fat Children (with Lyrics)"
"V2yy141q8HQ","Eels - Novocaine For The Soul"
"v4xZUr0BEfE","The HU - Yuve Yuve Yu"
"VA2tHiM70uE","K.Flay - Giver (Sir Sly Remix/Audio)"
"VEmM6vVFrao","Skream - Rutten"
"vgeEFV21TWU","Wolfgang Gartner feat. Medina - Overdose (Official Video)"
"Vh5_KQIXfVg","Golden Parazyth - Regatta of Happiness"
"VH_UvoQdsDE","S?ur - 'No Fire'"
"Vq1pI-HM18o","Major Lazer - Get Free (Ft. Amber Coffman) (Andy C Remix)"
"vRemdwZUZ-Y","Gothic 3 - Welcome to Varant - Cover by Dryante feat. Taras Garaja (Kai Rosenkranz)"
"vU8eL2CjzHw","The Rains of Castamere (extended cut)"
"VxsbTbB7cwc","Korn - Hold On"
"w0XWeyOZxI8","Yeah Yeah Yeahs - Gold Lion (E-version)"
"w9WwDddpHrg","Domastic - Weird Dream [NCS Release]"
"WaIIgUIfMFU","regina spektor the ghost of corporate future subtitulada"
"WdUf3IjQv3E","Skruzd?"
"wg5geyUlU4Y","The National - "Conversation 16" (Official Video)"
"Wg8D7Bbm6TI","[Breaks] - PIXL - Rat Twist [Monstercat Release]"
"Wm8vcFn0bgY | Infected Mushroom - Kazabubu (Audio)","Dim Mak Records"
"WNmbq2DQRuQ","Gorilaz - Clint Eastwood (Live on Letterman)"
"wqZ5iLOUOGA","[Drumstep] - Noisestorm - Breakdown VIP [Monstercat Release]"
"Wr4DLTSaI2E","DJ Butcher Cocaine"
"WrjwGPb0Hvw","Eminem - Shake That ft. Nate Dogg"
"Wx1oTDlTVt8","Apvog?"
"WZslX1Fs70A","Messiah - Pagavau Padla"
"w_x7DFmgX8M","Wolfgang Gartner - Wolfgang's 5th Symphony (Radio Edit)"
"X0RhkHgmHqw","Mujuice - ?????? (HQ)"
"xflEnhaoeaI","Marilyn Manson - Children of Cain"
"xlE3-liDdto","Tom Rosenthal - Miffed (Official Music Video)"
"XOQFeyhoJuQ","Chiptune ElectroSwing"| Catboss - Provincial Town [Download]                                        |
"XSudap5Pyrc","Cabaret Nocturne - Blood Walk (Original Mix)"
"XtAhISkoJZc","chop suey but everything is a table"
"Xw6Q6qWUfF8","Chase & Status - 'Machine Gun' Feat Pusha T Live from London's O2 Arena"
"xzkiJJ_NkD0","Korn - Another Brick In The Wall (Pink Floyd Cover)"
"y2xgwzNKa58","Die Antwoord - Strunk"
"yFAnn2j4iB0","Pixies - Where is my Mind (Fight Club Soundtrack) HQ"
"YhAb5h3Qppk","[VSN010] Noisia - Displaced"
"yIWmRbHDhGw","The National - "Sea Of Love" video"
"YKtlK7sn0JQ","Ebay Parody Song - Weird Al Yankovic"
"yozTXj6esWI","Sonny Banks - Good Girls"
"Ys9sIqv42lo","Knife Party - 'Rage Valley'"
"ysPtBjY8o_A | Chris Christodoulou - Coalescence","Risk of Rain (2013)"
"yXurCUkM7dw","Wolfgang Gartner - Shrunken Heads"
"yywGI1H_oyM","Ghoultown "Drink With The Living Dead" [OFFICIAL VIDEO]"
"y_z9W_N5Drg","Knife Party - 'Power Glove' - OUT NOW"
"Z-zL_paDVTc","Dope D.O.D. - What happened (Official Video)"
"z1_zF21JXxM","Wolfgang Gartner - Hook Shot (original mix)"
"Z4zHMtJv9W8","Ain't No Rest For The Wicked - Vintage Jazz Cage The Elephant Cover ft. Joey Cook"
"ZAzHvMoHdHo","Kill The Noise - FUK UR MGMT"
"zHXEAM19YUE","Sonny Banks - Bad Boy"
"ZkaK2cKTsU8","Marilyn Manson   Killing Strangers John Wick soundtrack"
"ZmPe8WMU10M","Uppermost - Revolution [HQ]"
"zOgnA3CnARk","AUTOCORRECT (Official Lyric Video)"
"zOMFGuM5xww","[Breaks] - Excision & Pegboard Nerds - Bring The Madness (Noisestorm Remix) [Monstercat]"
"ZPnbiX2i1RU","Black Tiger Sex Machine x Apashe - The Grave (Ft. Gabriella Hook)"
"zS0oNDe0r5k","Pegboard Nerds & Tristam - Razor Sharp VIP"
"ztcpjiXqmI8","Wolfgang Gartner & K?d - Banshee"
"_BQRgT3925U","Busdriver - Map Your Psyche (featuring Abstract Rude and Ellay Khule)"
"_EWTnmYUPpU","Disturbed - Never Wrong [Official HD]"
"_kJZZvWMz64","Garbanotas Bosistas - Jie I?skrido ? Kosmos? (Mesijus & Münpauzn cover)"
"_oYLhAZvjvU","A Tale of Two Adventurers (and artificial difficulty)"
"_qtA4tg_4G4","Machine Head - Darkness Within [OFFICIAL VIDEO]"
"_V6Vq5-VLtc","Dope D.O.D. - Relationship Status"
"_zagM1Memfw","While My Guitar Gently Weeps - Regina Spektor"
"_zj4WbJv2rQ","Infected Mushroom - Now is Gold (feat. Kelsy Karter)"
"_zPlr-o-YEQ","Disclosure - You & Me  feat. Eliza Doolittle  (Flume Remix)"